{
  "schema": [
    {
      "name": "host",
      "type": "text",
      "editable": true,
      "default": ""
    },
    {
      "name": "label",
      "type": "text",
      "editable": true,
      "default": ""
    },
    {
      "name": "name",
      "type": "text",
      "editable": true,
      "default": ""
    },
    {
      "name": "type",
      "type": "text",
      "editable": false,
      "default": "manual"
    },
    {
      "name": "active",
      "type": "checkbox",
      "editable": true,
      "default": true
    }
  ],
  "hosts": [
    {
      "host": "1.1.1.1",
      "label": "Cloudflare DNS",
      "name": "cloudflare_dns",
      "type": "manual"
    },
    {
      "host": "8.8.8.8",
      "label": "Google DNS",
      "name": "google_dns",
      "type": "manual"
    },
    {
      "host": "redsky.fortiddns.com",
      "label": "Mike Home",
      "name": "mike_home",
      "type": "manual"
    },
    {
      "host": "3.3.3.3",
      "label": "Dead Test",
      "name": "dead_test",
      "type": "manual"
    },
    {
      "host": "google.com",
      "label": "Google",
      "name": "google",
      "type": "manual"
    },
    {
      "host": "cnn.com",
      "label": "CNN",
      "name": "cnn",
      "type": "manual"
    },
    {
      "host": "foxnews.com",
      "label": "Fox News",
      "name": "fox_news",
      "type": "manual"
    },
    {
      "host": "techcorps.org",
      "label": "Tech Corps",
      "name": "techcorps",
      "type": "manual"
    },
    {
      "host": "172.16.1.1",
      "label": "FortiGate Internal",
      "name": "fg_internal",
      "type": "manual"
    },
    {
      "host": "victoriasecret.com",
      "label": "Victoria's Secret",
      "name": "v_secret",
      "type": "manual"
    }
  ]
}
